{
    "accept_payment": 0,
    "allow_comments": 0,
    "allow_delete": 0,
    "allow_edit": 0,
    "allow_incomplete": 0,
    "allow_multiple": 0,
    "allow_print": 0,
    "amount": 0.0,
    "amount_based_on_field": 0,
    "apply_document_permissions": 0,
    "button_label": "Submit",
    "client_script": "",
    "creation": "2019-01-25 14:24:12.588810",
    "currency": "INR",
    "custom_css": "[data-doctype=\"Web Form\"] {\n    width: 50%;\n    margin: 6rem auto;\n}",
    "doc_type": "Personal Data Deletion Request",
    "docstatus": 0,
    "doctype": "Web Form",
    "idx": 0,
    "introduction_text": "<div class=\"ql-editor read-mode\"><p>Send a request to delete your account and personally identifiable information (PII) that is stored on our system. You will receive an email to verify your request. Once the request is verified we will take care of deleting your PII. If you just want to check what PII we have stored, you can <a href=\"/request-data\" rel=\"noopener noreferrer\">request your data</a>.</p></div>",
    "is_standard": 1,
    "login_required": 0,
    "max_attachment_size": 0,
    "modified": "2021-11-30 17:56:03.099870",
    "modified_by": "Administrator",
    "module": "Website",
    "name": "request-to-delete-data",
    "owner": "Administrator",
    "payment_button_label": "Buy Now",
    "published": 1,
    "route": "request-for-account-deletion",
    "route_to_success_link": 0,
    "show_attachments": 0,
    "show_in_grid": 0,
    "show_sidebar": 0,
    "sidebar_items": [],
    "success_message": "An email to verify your request has been sent to your email address. Please verify your request to complete the process.",
    "success_url": "/",
    "title": "Request for Account Deletion",
    "web_form_fields": [
     {
      "allow_read_on_all_link_options": 0,
      "fieldname": "email",
      "fieldtype": "Data",
      "hidden": 0,
      "label": "Email",
      "max_length": 0,
      "max_value": 0,
      "options": "",
      "read_only": 0,
      "reqd": 1,
      "show_in_filter": 0
     }
    ]
   }
