{
 "allow_copy": 0,
 "allow_import": 0,
 "allow_rename": 0,
 "beta": 0,
 "creation": "2015-11-28 00:57:39.766888",
 "custom": 0,
 "docstatus": 0,
 "doctype": "DocType",
 "document_type": "System",
 "editable_grid": 0,
 "fields": [
  {
   "allow_on_submit": 0,
   "bold": 0,
   "collapsible": 0,
   "columns": 0,
   "fieldname": "view",
   "fieldtype": "HTML",
   "hidden": 0,
   "ignore_user_permissions": 0,
   "ignore_xss_filter": 0,
   "in_filter": 0,
   "in_list_view": 0,
   "in_standard_filter": 0,
   "label": "Snapshot View",
   "length": 0,
   "no_copy": 0,
   "permlevel": 0,
   "precision": "",
   "print_hide": 0,
   "print_hide_if_no_value": 0,
   "read_only": 0,
   "remember_last_selected_value": 0,
   "report_hide": 0,
   "reqd": 0,
   "search_index": 0,
   "set_only_once": 0,
   "unique": 0
  },
  {
   "allow_on_submit": 0,
   "bold": 0,
   "collapsible": 0,
   "columns": 0,
   "fieldname": "seen",
   "fieldtype": "Check",
   "hidden": 1,
   "ignore_user_permissions": 0,
   "ignore_xss_filter": 0,
   "in_filter": 1,
   "in_list_view": 0,
   "in_standard_filter": 0,
   "label": "Seen",
   "length": 0,
   "no_copy": 0,
   "permlevel": 0,
   "precision": "",
   "print_hide": 0,
   "print_hide_if_no_value": 0,
   "read_only": 0,
   "remember_last_selected_value": 0,
   "report_hide": 0,
   "reqd": 0,
   "search_index": 0,
   "set_only_once": 0,
   "unique": 0
  },
  {
   "allow_on_submit": 0,
   "bold": 0,
   "collapsible": 0,
   "columns": 0,
   "fieldname": "evalue",
   "fieldtype": "Code",
   "hidden": 1,
   "ignore_user_permissions": 0,
   "ignore_xss_filter": 0,
   "in_filter": 0,
   "in_list_view": 1,
   "in_standard_filter": 0,
   "label": "Friendly Title",
   "length": 0,
   "no_copy": 0,
   "permlevel": 0,
   "precision": "",
   "print_hide": 0,
   "print_hide_if_no_value": 0,
   "read_only": 1,
   "remember_last_selected_value": 0,
   "report_hide": 0,
   "reqd": 0,
   "search_index": 0,
   "set_only_once": 0,
   "unique": 0
  },
  {
   "allow_on_submit": 0,
   "bold": 0,
   "collapsible": 0,
   "columns": 0,
   "fieldname": "timestamp",
   "fieldtype": "Datetime",
   "hidden": 1,
   "ignore_user_permissions": 0,
   "ignore_xss_filter": 0,
   "in_filter": 0,
   "in_list_view": 0,
   "in_standard_filter": 0,
   "label": "Timestamp",
   "length": 0,
   "no_copy": 0,
   "permlevel": 0,
   "precision": "",
   "print_hide": 0,
   "print_hide_if_no_value": 0,
   "read_only": 1,
   "remember_last_selected_value": 0,
   "report_hide": 0,
   "reqd": 0,
   "search_index": 0,
   "set_only_once": 0,
   "unique": 0
  },
  {
   "allow_on_submit": 0,
   "bold": 0,
   "collapsible": 0,
   "columns": 0,
   "default": "1",
   "fieldname": "relapses",
   "fieldtype": "Int",
   "hidden": 1,
   "ignore_user_permissions": 0,
   "ignore_xss_filter": 0,
   "in_filter": 0,
   "in_list_view": 1,
   "in_standard_filter": 0,
   "label": "Relapses",
   "length": 0,
   "no_copy": 0,
   "permlevel": 0,
   "precision": "",
   "print_hide": 0,
   "print_hide_if_no_value": 0,
   "read_only": 1,
   "remember_last_selected_value": 0,
   "report_hide": 0,
   "reqd": 0,
   "search_index": 0,
   "set_only_once": 0,
   "unique": 0
  },
  {
   "allow_on_submit": 0,
   "bold": 0,
   "collapsible": 0,
   "columns": 0,
   "fieldname": "etype",
   "fieldtype": "Data",
   "hidden": 1,
   "ignore_user_permissions": 0,
   "ignore_xss_filter": 0,
   "in_filter": 0,
   "in_list_view": 0,
   "in_standard_filter": 0,
   "label": "Exception Type",
   "length": 0,
   "no_copy": 0,
   "permlevel": 0,
   "precision": "",
   "print_hide": 0,
   "print_hide_if_no_value": 0,
   "read_only": 1,
   "remember_last_selected_value": 0,
   "report_hide": 0,
   "reqd": 0,
   "search_index": 0,
   "set_only_once": 0,
   "unique": 0
  },
  {
   "allow_on_submit": 0,
   "bold": 0,
   "collapsible": 0,
   "columns": 0,
   "fieldname": "traceback",
   "fieldtype": "Code",
   "hidden": 1,
   "ignore_user_permissions": 0,
   "ignore_xss_filter": 0,
   "in_filter": 0,
   "in_list_view": 0,
   "in_standard_filter": 0,
   "label": "Traceback",
   "length": 0,
   "no_copy": 0,
   "permlevel": 0,
   "precision": "",
   "print_hide": 0,
   "print_hide_if_no_value": 0,
   "read_only": 1,
   "remember_last_selected_value": 0,
   "report_hide": 0,
   "reqd": 0,
   "search_index": 0,
   "set_only_once": 0,
   "unique": 0
  },
  {
   "allow_on_submit": 0,
   "bold": 0,
   "collapsible": 0,
   "columns": 0,
   "fieldname": "parent_error_snapshot",
   "fieldtype": "Data",
   "hidden": 1,
   "ignore_user_permissions": 0,
   "ignore_xss_filter": 0,
   "in_filter": 0,
   "in_list_view": 0,
   "in_standard_filter": 0,
   "label": "Parent Error Snapshot",
   "length": 0,
   "no_copy": 0,
   "options": "",
   "permlevel": 0,
   "precision": "",
   "print_hide": 0,
   "print_hide_if_no_value": 0,
   "read_only": 0,
   "remember_last_selected_value": 0,
   "report_hide": 0,
   "reqd": 0,
   "search_index": 0,
   "set_only_once": 0,
   "unique": 0
  },
  {
   "allow_on_submit": 0,
   "bold": 0,
   "collapsible": 0,
   "columns": 0,
   "fieldname": "pyver",
   "fieldtype": "Code",
   "hidden": 1,
   "ignore_user_permissions": 0,
   "ignore_xss_filter": 0,
   "in_filter": 0,
   "in_list_view": 0,
   "in_standard_filter": 0,
   "label": "Pyver",
   "length": 0,
   "no_copy": 0,
   "permlevel": 0,
   "precision": "",
   "print_hide": 0,
   "print_hide_if_no_value": 0,
   "read_only": 1,
   "remember_last_selected_value": 0,
   "report_hide": 0,
   "reqd": 0,
   "search_index": 0,
   "set_only_once": 0,
   "unique": 0
  },
  {
   "allow_on_submit": 0,
   "bold": 0,
   "collapsible": 0,
   "columns": 0,
   "fieldname": "exception",
   "fieldtype": "Code",
   "hidden": 1,
   "ignore_user_permissions": 0,
   "ignore_xss_filter": 0,
   "in_filter": 0,
   "in_list_view": 0,
   "in_standard_filter": 0,
   "label": "Exception",
   "length": 0,
   "no_copy": 0,
   "permlevel": 0,
   "precision": "",
   "print_hide": 0,
   "print_hide_if_no_value": 0,
   "read_only": 0,
   "remember_last_selected_value": 0,
   "report_hide": 0,
   "reqd": 0,
   "search_index": 0,
   "set_only_once": 0,
   "unique": 0
  },
  {
   "allow_on_submit": 0,
   "bold": 0,
   "collapsible": 0,
   "columns": 0,
   "fieldname": "locals",
   "fieldtype": "Code",
   "hidden": 1,
   "ignore_user_permissions": 0,
   "ignore_xss_filter": 0,
   "in_filter": 0,
   "in_list_view": 0,
   "in_standard_filter": 0,
   "label": "Locals",
   "length": 0,
   "no_copy": 0,
   "permlevel": 0,
   "precision": "",
   "print_hide": 0,
   "print_hide_if_no_value": 0,
   "read_only": 0,
   "remember_last_selected_value": 0,
   "report_hide": 0,
   "reqd": 0,
   "search_index": 0,
   "set_only_once": 0,
   "unique": 0
  },
  {
   "allow_on_submit": 0,
   "bold": 0,
   "collapsible": 0,
   "columns": 0,
   "fieldname": "frames",
   "fieldtype": "Code",
   "hidden": 1,
   "ignore_user_permissions": 0,
   "ignore_xss_filter": 0,
   "in_filter": 0,
   "in_list_view": 0,
   "in_standard_filter": 0,
   "label": "Frames",
   "length": 0,
   "no_copy": 0,
   "permlevel": 0,
   "precision": "",
   "print_hide": 0,
   "print_hide_if_no_value": 0,
   "read_only": 0,
   "remember_last_selected_value": 0,
   "report_hide": 0,
   "reqd": 0,
   "search_index": 0,
   "set_only_once": 0,
   "unique": 0
  }
 ],
 "hide_heading": 0,
 "hide_toolbar": 0,
 "idx": 0,
 "image_view": 0,
 "in_create": 1,

 "is_submittable": 0,
 "issingle": 0,
 "istable": 0,
 "max_attachments": 0,
 "modified": "2021-10-25 12:21:44.292471",
 "modified_by": "Administrator",
 "module": "Core",
 "name": "Error Snapshot",
 "name_case": "",
 "owner": "Administrator",
 "permissions": [
  {
   "amend": 0,
   "apply_user_permissions": 0,
   "cancel": 0,
   "create": 1,
   "delete": 1,
   "email": 1,
   "export": 1,
   "if_owner": 0,
   "import": 0,
   "is_custom": 0,
   "permlevel": 0,
   "print": 1,
   "read": 1,
   "report": 1,
   "role": "Administrator",
   "set_user_permissions": 0,
   "share": 1,
   "submit": 0,
   "write": 1
  }
 ],
 "quick_entry": 0,
 "read_only": 0,
 "read_only_onload": 0,
 "sort_field": "timestamp",
 "sort_order": "DESC",
 "title_field": "evalue",
 "track_seen": 0
}
