{
	"actions": [],
	"autoname": "Prompt",
	"creation": "2019-09-30 11:56:57.943241",
	"doctype": "DocType",
	"editable_grid": 1,
	"engine": "InnoDB",
	"field_order": [
	 "script_type",
	 "reference_doctype",
	 "event_frequency",
	 "doctype_event",
	 "api_method",
	 "allow_guest",
	 "column_break_3",
	 "module",
	 "disabled",
	 "section_break_8",
	 "script",
	 "help_section",
	 "help_html"
	],
	"fields": [
	 {
	  "fieldname": "script_type",
	  "fieldtype": "Select",
	  "in_list_view": 1,
	  "label": "Script Type",
	  "options": "DocType Event\nScheduler Event\nPermission Query\nAPI",
	  "reqd": 1
	 },
	 {
	  "fieldname": "script",
	  "fieldtype": "Code",
	  "label": "Script",
	  "options": "Python",
	  "reqd": 1
	 },
	 {
	  "depends_on": "eval:['DocType Event', 'Permission Query'].includes(doc.script_type)",
	  "fieldname": "reference_doctype",
	  "fieldtype": "Link",
	  "in_list_view": 1,
	  "label": "Reference Document Type",
	  "options": "DocType"
	 },
	 {
	  "depends_on": "eval:doc.script_type==='DocType Event'",
	  "fieldname": "doctype_event",
	  "fieldtype": "Select",
	  "label": "DocType Event",
	  "options": "Before Insert\nBefore Validate\nBefore Save\nAfter Save\nBefore Submit\nAfter Submit\nBefore Cancel\nAfter Cancel\nBefore Delete\nAfter Delete\nBefore Save (Submitted Document)\nAfter Save (Submitted Document)"
	 },
	 {
	  "depends_on": "eval:doc.script_type==='API'",
	  "fieldname": "api_method",
	  "fieldtype": "Data",
	  "label": "API Method"
	 },
	 {
	  "default": "0",
	  "depends_on": "eval:doc.script_type==='API'",
	  "fieldname": "allow_guest",
	  "fieldtype": "Check",
	  "label": "Allow Guest"
	 },
	 {
	  "default": "0",
	  "fieldname": "disabled",
	  "fieldtype": "Check",
	  "label": "Disabled"
	 },
	 {
	  "fieldname": "column_break_3",
	  "fieldtype": "Column Break"
	 },
	 {
	  "fieldname": "section_break_8",
	  "fieldtype": "Section Break"
	 },
	 {
	  "fieldname": "help_section",
	  "fieldtype": "Section Break",
	  "label": "Help"
	},
	{
	 "depends_on": "eval:doc.script_type == \"Scheduler Event\"",
	 "fieldname": "event_frequency",
	 "fieldtype": "Select",
	 "label": "Event Frequency",
	 "mandatory_depends_on": "eval:doc.script_type == \"Scheduler Event\"",
	 "options": "All\nHourly\nDaily\nWeekly\nMonthly\nYearly\nHourly Long\nDaily Long\nWeekly Long\nMonthly Long"
	},
	{
	 "fieldname": "module",
	 "fieldtype": "Link",
	 "label": "Module (for export)",
	 "options": "Module Def"
	 }
	],
	"index_web_pages_for_search": 1,
	"links": [
		{
			"link_doctype": "Scheduled Job Type",
			"link_fieldname": "server_script"
		}
	],
	"modified": "2021-09-04 12:02:43.671240",
	"modified_by": "Administrator",
	"module": "Core",
	"name": "Server Script",
	"owner": "Administrator",
	"permissions": [
	 {
	  "create": 1,
	  "delete": 1,
	  "email": 1,
	  "export": 1,
	  "print": 1,
	  "read": 1,
	  "report": 1,
	  "role": "Script Manager",
	  "share": 1,
	  "write": 1
	 }
	],
	"sort_field": "modified",
	"sort_order": "DESC",
	"track_changes": 1
   }
