{
    "actions": [],
    "creation": "2021-05-21 23:05:45.342114",
    "doctype": "DocType",
    "engine": "InnoDB",
    "field_order": [
     "is_table_field",
     "section_break_2",
     "parent_field",
     "field",
     "title",
     "description",
     "column_break_2",
     "position",
     "label",
     "has_next_condition",
     "next_step_condition",
     "section_break_13",
     "fieldname",
     "parent_fieldname",
     "fieldtype",
     "child_doctype"
    ],
    "fields": [
     {
      "fieldname": "title",
      "fieldtype": "Data",
      "in_list_view": 1,
      "label": "Title",
      "reqd": 1
     },
     {
      "columns": 4,
      "fieldname": "description",
      "fieldtype": "HTML Editor",
      "in_list_view": 1,
      "label": "Description",
      "reqd": 1
     },
     {
      "depends_on": "eval: (!doc.is_table_field || (doc.is_table_field && doc.parent_field))",
      "fieldname": "field",
      "fieldtype": "Link",
      "label": "Field",
      "options": "DocField",
      "reqd": 1
     },
     {
      "fetch_from": "field.fieldname",
      "fieldname": "fieldname",
      "fieldtype": "Data",
      "hidden": 1,
      "label": "Fieldname",
      "read_only": 1
     },
     {
      "fetch_from": "field.label",
      "fieldname": "label",
      "fieldtype": "Data",
      "in_list_view": 1,
      "label": "Label",
      "read_only": 1
     },
     {
      "fieldname": "column_break_2",
      "fieldtype": "Column Break"
     },
     {
      "default": "Bottom",
      "fieldname": "position",
      "fieldtype": "Select",
      "label": "Position",
      "options": "Left\nLeft Center\nLeft Bottom\nTop\nTop Center\nTop Right\nRight\nRight Center\nRight Bottom\nBottom\nBottom Center\nBottom Right\nMid Center"
     },
     {
      "depends_on": "has_next_condition",
      "fieldname": "next_step_condition",
      "fieldtype": "Code",
      "label": "Next Step Condition",
      "oldfieldname": "condition",
      "options": "JS"
     },
     {
      "default": "0",
      "fieldname": "has_next_condition",
      "fieldtype": "Check",
      "label": "Has Next Condition"
     },
     {
      "default": "0",
      "fetch_from": "field.fieldtype",
      "fieldname": "fieldtype",
      "fieldtype": "Data",
      "hidden": 1,
      "label": "Fieldtype",
      "read_only": 1
     },
     {
      "default": "0",
      "fieldname": "is_table_field",
      "fieldtype": "Check",
      "label": "Is Table Field"
     },
     {
      "fieldname": "section_break_2",
      "fieldtype": "Section Break"
     },
     {
      "depends_on": "is_table_field",
      "fieldname": "parent_field",
      "fieldtype": "Link",
      "label": "Parent Field",
      "mandatory_depends_on": "is_table_field",
      "options": "DocField"
     },
     {
      "fieldname": "section_break_13",
      "fieldtype": "Section Break",
      "hidden": 1,
      "label": "Hidden Fields"
     },
     {
      "fetch_from": "parent_field.options",
      "fieldname": "child_doctype",
      "fieldtype": "Data",
      "hidden": 1,
      "label": "Child Doctype",
      "read_only": 1
     },
     {
      "fetch_from": "parent_field.fieldname",
      "fieldname": "parent_fieldname",
      "fieldtype": "Data",
      "hidden": 1,
      "label": "Parent Fieldname",
      "read_only": 1
     }
    ],
    "index_web_pages_for_search": 1,
    "istable": 1,
    "links": [],
    "modified": "2021-06-06 20:52:21.076972",
    "modified_by": "Administrator",
    "module": "Desk",
    "name": "Form Tour Step",
    "owner": "Administrator",
    "permissions": [],
    "sort_field": "modified",
    "sort_order": "DESC",
    "track_changes": 1
   }